<?xml version="1.0" encoding="UTF-8" standalone="no"?>
<svg
   xmlns:dc="http://purl.org/dc/elements/1.1/"
   xmlns:cc="http://creativecommons.org/ns#"
   xmlns:rdf="http://www.w3.org/1999/02/22-rdf-syntax-ns#"
   xmlns:svg="http://www.w3.org/2000/svg"
   xmlns="http://www.w3.org/2000/svg"
   version="1.1"
   id="svg2"
   height="58"
   width="120"
   viewBox="0 0 120 58">
  <path
     id="path4"
     class="shape-1"
     d="M55.1.9h1.7l.2-.8h-21.4l-.2.8h3.1c2.7 0 4.9 1.9 4.9 5.6 0 2.1-.9 4.8-2.4 8.1l-13.9 30.7-3.4-39.9c-.3-3.1 1.3-4.5 4.8-4.5h2l.2-.8h-30.2l-.3.8h1.9c2.4 0 3.3 1.5 3.5 4.3l5.4 51.6h12.7l21.3-45.1c3.3-6.7 6.7-10.8 10.1-10.8zm-2.5 56.1c-1.9 0-3.1-.6-3.1-3.8 0-4 1.5-11.9 3.1-19.1.2 3.3 2.5 6.6 5.9 6.6.8 0 1.5-.1 2.2-.2-3.2 13.7-4.4 16.5-8.1 16.5zm60.6-27.1c4 0 6.6-3.3 6.6-7.1 0-3.2-2.3-5.6-5.6-5.6-5.9 0-8.7 4.7-13.6 13.3-1-5.4-3.5-12.4-9.7-12.4-7 0-15.1 10-22.5 16.2-3.4 2.9-7.1 4.7-10.1 4.7-3.1 0-4.9-3.1-4.9-8.6 2.2-9 3.3-11.3 6.7-11.3 2.3 0 3.3 1.3 3.3 4 0 2.9-.6 7.7-1.9 13.8 3.3-1 8.3-5.2 12.5-9.7-2.2-5.3-7-8.9-13.8-8.9-12.7 0-23.9 11.4-23.9 24.2 0 8.8 6.3 15.5 16.1 15.5 16.2 0 23-14 23-23.8 0-1.4-.1-2.4-.2-3.7 2.5-2.7 5.7-5.3 8.3-5.3 3 0 5.4 7.5 7.7 18.8-2.1 2.3-4.2 6.7-5.2 7.5-.4-4-3.1-6.5-6.6-6.5-4 0-6.7 3.8-6.7 7 0 3.6 2.5 6 5.8 6 6.9 0 8.8-6.5 13.1-12.3 1.3 6.2 4.4 12.3 9.7 12.3 6.3 0 12.1-5.4 15.1-9.2l-.6-.9c-1.9 1.9-3.8 3.1-6 3.1-3.9 0-6.7-8.4-8.8-18.6 1.3-1.7 3.3-6.1 4.7-7.7.9 1.8 2.9 5.2 7.5 5.2z"
     fill="#333" />
</svg>
